module gitlab.com/av1o/components-docgen

go 1.22

require (
	github.com/olekukonko/tablewriter v0.0.5
	github.com/spf13/cobra v1.8.1
	gopkg.in/yaml.v3 v3.0.1
)

require (
	github.com/inconshreveable/mousetrap v1.1.0 // indirect
	github.com/mattn/go-runewidth v0.0.16 // indirect
	github.com/rivo/uniseg v0.4.7 // indirect
	github.com/spf13/pflag v1.0.5 // indirect
)
